{
   "pagination":{
      "lastPage":13,
      "perPage":10,
      "currentPage":1,
      "total":127,
      "count":10
   },
   "news":[
      {
         "_id":"67a56de7e31a4f46d7ba9f82",
         "title":"13 ရက်နေ့ ဝေါ့ပါမစ်သက်တမ်းကုန်မည့်သူများ ပိုက်ဆံကြိုထုတ်ထားရန်",
         "content":"<p><br></p><p><span style=\"background-color: rgb(255 255 255/var(--tw-bg-opacity));\">ထိုင်းနိုင်ငံတွင်း အလုပ်လုပ်ကိုင်နေတဲ့ လူဟောင်း ဘတ်သမား များအနေနဲ့ ၁၃ ရက်နေ့မှာ စာအုပ်သက်တမ်း/ ဗီဇာပါမစ် ကုန်ဆုံးမှာဖြစ်တဲ့အတွက် သုံးစွဲနေတဲ့ ဘဏ်အကောင့်ထဲက ပိုက်ဆံတွေ ထုတ်ထားသင့်တယ်လို့ မြန်မာ့ အလုပ်သမားအရေး ဆောင်ရွက်နေသူ ကိုရဲမင်း AAC က ပြောပြထားပါတယ်။ သူ့အကောင့်မှာ ဖော်ပြထားတာကတော့ “မြန်မာလုပ်သားများ ကိုင်ဆောင်သည့် ဘဏ်များသည် ပတ်စပို့စာအုပ် သက်တမ်း ဗီစာ/ပါမစ် သက်တမ်းနှင့် ချိန်ညှိထားသည်မို့ ဘဏ်ကဒ်သက်တမ်းကုန် စာအုပ်သက်တမ်း ဗီစာ/ပါမစ် ကုန်ပြီဆိုပါက ဘဏ်များကလည်း ယာယီပိတ်လိုက်နိုင်ပါတယ် ၊ ဘဏ်ကဒ်ယာယီပိတ်ခံရပြီး ဘဏ်စာအုပ်နှင့် ငွေသွားထုတ်ယူမည်ဆိုပါက မိမိဘဏ်ဖွင့်ခဲ့သည့် မြို့နယ် ဘဏ်ရုံးများမှာသာ သွားပြန်ထုတ်ရတာမျိုးရှိသည်မို့ အချိန်ကုန် ခရီးစရိတ်ကုန်ပြီးမှထုတ်ရနိုင်ပါတယ် နောက်ထက် ဗီစာ/ပါမစ် တိုးအချက်အလက်က ဘယ်လောက်အထိ ကြာမလည်းဆိုတာ တိတိကျကျ မသိ့ရသေးပါဘူး ဒါကြောင့်ကြိုတင်ပြင်ဆင်ထားနိုင်ရန် မေတ္တာဖြင့်အသိပေးပါတယ်။” လို့ ဖော်ပြထားပါတယ်။</span></p><p>.</p><p>တကယ်လည်းဟုတ်ပါတယ် ထိုင်းဘဏ်တွေရဲ့ သက်တမ်းက ပါ့တ်စ်ပို့ သက်တမ်းနဲ့ဖြစ်လို့ ကိုယ်ကစာအုပ်ကုန်ခါနီးဆို ပိုက်ဆံတွေ ပိတ်မမိရလေအောင် ကြိုထုတ်ထားဖို့ Burmatowns က တိုက်တွန်းလိုက်ပါတယ်။ မဟုတ်ရင်တော့ အလုပ်တွေရှုပ်ကုန်မှာပေါ့။</p><p><br></p><p>Ref: ကိုရဲမင်း AAC</p><p><br></p><p> #burmatowns #WhatsHappeningInThailand #WeLoveThailand #ထိုင်းရောက်မြန်မာ</p>",
         "coverPhoto":"https://mingalar.mcodey.com/static/images/366456f959643a326aa7.jpeg",
         "newsCategory":{
            "_id":"67478de52eb302396c60a23e",
            "name":"Thailand News"
         },
         "createdAt":"2025-02-07T02:20:23.924Z",
         "updatedAt":"2025-02-07T02:20:23.924Z",
         "__v":0
      },
      {
         "_id":"67a56da4e31a4f46d7ba9f7a",
         "title":"ပြောင်းစေ့အောက်က လူငယ်တွေရဲ့အိပ်မက်",
         "content":"<p>မဲဆောက်မှာ အာဏာပိုင်တွေရဲ့ ရှောင်တခင်စစ်ဆေးမှုအတွင်း ပြောင်းစေ့တွေတင်ဆောင်လာတဲ့ကား၊ ပြောင်းစေ့တွေအောက်မှာ ပုန်းပြီးလိုက်ပါလာတဲ့ မြန်မာလူမျိုး (၈) ဦး (အမျိုးသား-၆၊ အမျိုးသမီး-၂ ဦး) ဖမ်းခံရတယ်လို့ ထိုင်းသတင်းတွေမှာဖော်ပြလာပါတယ်။ မဲဆောက်မြို့အထွက်က ဟွေ့ဟင်ဖွန်&nbsp;ပူးပေါင်းစစ်ဆေးရေးဂိတ်မှာ ဖမ်းဆီးခံရတာဖြစ်ပြီး မြန်မာတွေဟာ ထိုင်းနိုင်ငံ စမွတ်ပရာကန်ကိုသွားပြီး အလုပ်လုပ်ကိုင်ဖို့ရှိနေတာလို့ ဖော်ပြထားပါတယ်။ ဖမ်းဆီးတဲ့အခါမှာ ကားမောင်းလာတဲ့ ထိုင်းလူမျိုးကိုလည်း ဖမ်းဆီးထားပြီး အကုန်လုံးကို မဲဆောက်ရဲစခန်းကို ပို့ဆောင်ထားတယ်လို့ သိရပါတယ်။</p><p>.</p><p>ဒီရက်ပိုင်း ကျားဖြန့်ကိစ္စတွေက အရမ်းရှုပ်ထွေးနေတဲ့အတွက် ထိုင်းအစိုးရက ဖမ်းဆီးမှုတွေကို တင်းတင်းကျပ်ကျပ်လုပ်နေတဲ့အတွက် သာမန်ထက် သတိ ၂ ဆ- ၃ ဆထားဖို့ အရေးကြီးပါတယ်။</p><p><br></p><p>Ref: KhaoSod English</p><p><br></p><p>#burmatowns #WhatsHappeningInThailand #WeLoveThailand #ထိုင်းရောက်မြန်မာ</p>",
         "coverPhoto":"https://mingalar.mcodey.com/static/images/f24278ffa2512e54f68d.jpeg",
         "newsCategory":{
            "_id":"67478de52eb302396c60a23e",
            "name":"Thailand News"
         },
         "createdAt":"2025-02-07T02:19:16.399Z",
         "updatedAt":"2025-02-07T02:19:16.399Z",
         "__v":0
      },
      {
         "_id":"67a5685fe31a4f46d7ba9f72",
         "title":"ထီပေါက်လို့ ဝက်ခေါင်း ၁၀၀ ယဇ်ပူဇော်ခဲ့သူ",
         "content":"<p><br></p><p><br></p><p>ဘန်ကောက်မှာနေတဲ့ ထိုင်ဝမ်လူမျိုးတစ်ယောက်က သူ ထိုင်ဝမ်ထီပေါက်တဲ့ အထိမ်းအမှတ်အနေနဲ့ ဘန်ကောက်က ဘုရားကျောင်းတစ်ခုမှာ ဝက်ခေါင်း အခု ၁၀၀ ယဇ်ပူဇော်ပြီး ကုသိုလ်ပြုခဲ့တဲ့ ကိစ္စ ထိုင်းဖေ့ဘွတ်ခ် ရပ်ဝန်းမှာ လူပြောများနေပါတယ်။ ဘန်ကောက် စိုင်းမိုင်မှာရှိတဲ့ Wat Ko Suwannaram ဘုရားကျောင်းမှာ ဝက်ခေါင်း ၁၀၀၊ ဖယောင်းတိုင် ၃၀၀၀ နဲ့ လှုဖွယ်ရာတွေကို သူထိုင်ဝမ်မှာ သန်းထီ ပေါက်တဲ့အတွက် လှူဒါန်းခဲ့တာပါ။ ဘုရားကျောင်းဟာ တရုတ်လူမျိုးတွေကြားမှာ နာမည်ကြီးဖြစ်ပြီး နေ့စဥ် တရုတ်လူမျိုး ခရီးသွားတွေ လာရောက်လည်ပတ် ဖူးမျှော်ကြတဲ့ နေရာလည်းဖြစ်ပါတယ်။</p><p>.</p><p>ထီပေါက်တဲ့ ထိုင်ဝမ်လူမျိုးက အသက် ၃၂ နှစ်ဝန်းကျင် ဘန်ကောက်မှာ အခြေစိုက် အဆောင်လက်ဖွဲ့တွေရောင်းနေသူဖြစ်ပြီး ဘုရားတက်ဝတ်ပြုပြီးနောက်နေ့မှာ ထိုင်းက သန်းနဲ့ချီတဲ့ ထီပေါက်ခဲ့တာဖြစ်ပါတယ်။ ဒါကြောင့်ပဲ သူ့ ဆန္ဒတွေပြည့်သွားတဲ့အတွက် ဘုရားကိုပြန်လည်သွားရောက်ပြီး လှူဒါန်းမှုတွေလုပ်ခဲ့တာပါ။ ရွှေမြန်မာတို့လည်း ထီပေါက်ချင်ရင် ဘုရားသွား ကျောင်းတက်ဖို့ မမေ့နဲ့နော်။</p><p><br></p><p>Ref: Thaiger</p><p><br></p><p> #burmatowns #WhatsHappeningInThailand #WeLoveThailand #ထိုင်းရောက်မြန်မာ</p>",
         "coverPhoto":"https://mingalar.mcodey.com/static/images/f84b4d3e7ccdee256c2f.jpeg",
         "newsCategory":{
            "_id":"67478de52eb302396c60a23e",
            "name":"Thailand News"
         },
         "createdAt":"2025-02-07T01:56:47.613Z",
         "updatedAt":"2025-02-07T01:56:47.613Z",
         "__v":0
      },
      {
         "_id":"67a414f2e31a4f46d7ba9c71",
         "title":"❝7-11 မှာထမင်းဘူး အရောင်တွေမတူရတဲ့ အကြောင်းအရင်း❞",
         "content":"<p><br></p><p><br></p><p>7-11 မှာ ဟင်းမချက်ဖြစ်တဲ့နေ့ဆို ဝယ်စားနေကျ တစ်ခါသုံး ထမင်းဟင်းဘူးတွေက အရောင်မတူတာကို သတိထားမိကြမှာပါ။ အရောင်မတူတာက အကြောင်းရှိပါတယ်။ အရောင်တစ်ခုချင်းစီက ထမင်းဘူးကို သိမ်းပြီး စားနိုင်မယ့်အချိန်ကို ဖော်ပြနေတာပါ။</p><p><br></p><p>⬜️- အဖြူရောင်ထမင်းဘူးတွေက အေးခဲထားမယ်၊ သတ်မှတ် အပူချိန်တွင်းထားမယ်ဆို ၆ လအထိ အထားခံပါတယ်။ ဒါကြောင့် freezer တွေထဲမှာ ထည့်သိမ်းထားတာဖြစ်ပြီး ဈေးကလည်း တခြား ထမင်းဘူးတွေနဲ့ ယှဥ်ရင် နည်းနည်းဈေးပိုများတာပေါ့။</p><p><br></p><p>⬛️-အမည်းရောင်ဘူးတွေကတော့ အများဆုံး ၇ ရက်အထားခံပါတယ်။ သူ့ သတ်မှတ်အပူချိန်မှာ သိမ်းဖို့တော့လိုတာပေါ့နော်။</p><p><br></p><p>🟥- အနီရောင် ထမင်းဘူးတွေက ၄ ရက်အထိိ အထားခံပြီး ချက်ချင်းလက်ငင်းစားလိုသူတွေအတွက် ဖန်တီးထားပါ။ အဲ့တာကြောင့် ထမင်းဘူးပေါ်မူတည်ပြီး ရနိုင်တဲ့ ဟင်းတွေကလည်း မတူတာ သတိထားမိမှာပေါ့။ နောက်ဆို ထမင်းဝယ်စားတဲ့အခါ ဒီလိုလေး နည်းနည်းထည့်စဥ်းစားလို့ရအောင် Burmatowns က မျှဝေပေးလိုက်ပါတယ်နော်။</p><p><br></p><p>အကြိုက်ဆုံးထမင်းဘူးက ဘာဟင်းနဲ့လဲဆိုတာ ပြောပြခဲ့ဦး။👇</p><p><br></p><p> #burmatowns #WhatsHappeningInThailand #WeLoveThailand #ထိုင်းရောက်မြန်မာ</p>",
         "coverPhoto":"https://mingalar.mcodey.com/static/images/f491bb1649fcad890eda.jpeg",
         "newsCategory":{
            "_id":"67478de52eb302396c60a23e",
            "name":"Thailand News"
         },
         "createdAt":"2025-02-06T01:48:34.857Z",
         "updatedAt":"2025-02-06T01:48:34.857Z",
         "__v":0
      },
      {
         "_id":"67a414bde31a4f46d7ba9c69",
         "title":"ဘန်ကောက်က ကျောင်းတိုင်းမှာ ဖုန်ကင်းစင်ပြီး ပညာအေးဆေးစွာသင်နိုင်ဖို့ လုပ်ဆောင်မည်",
         "content":"<p><br></p><p>ဘန်ကောက်က ကျောင်းတွေမှာ လေထုညစ်ညမ်းမှုက သက်ရောက်မှုတွေမရှိစေဖို့၊ ကလေးငယ်လေးတွေ ကျန်းကျန်းမာမာနဲ့ စာအေးဆေးသင်နိုင်ဖို့ ဖုန်မှုန့်ကင်းစင် စာသင်ခန်းတစ်ခွင် အစီအစဥ်တွေပြုလုပ်သွားဖို့ ဘန်ကောက်မြို့တော်အုပ်ချုပ်ရေးက ဆန္ဒပြင်းပြစွာရှိနေတယ်လို့ ဖော်ပြလာပါတယ်။ ဒီနှစ်ကုန်ကို အပြီးအစီးလုပ်နိုင်ဖို့ ရည်ရွယ်ထားကြတာပါ။</p><p>.</p><p>ဘန်ကောက်မြို့တော် အုပ်ချုပ်ရေးရဲ့ စာသင်ခန်းပေါင်း ၁၉၆၆ ခုမှာ ၇၄၄ ကို ဖုန်မှုန့်ကင်းစင်တဲ့ စာသင်ခန်းတွေအဖြစ်ပြောင်းလဲသွားမှာဖြစ်ပြီး နှစ်ကုန်မှာတော့ အကုန်လုံးကို ပြောင်းလဲသွားမှာဖြစ်တယ်လို့ပြောပါတယ်။ ဒီ အစီအစဥ်မှာ စာသင်ခန်းအတွင်း လေထုသန့်စင်စက် တပ်တာအပြင် အဲယားကွန်းတွေတပ်တာလည်း ပါဝင်မှာဖြစ်ပြီး ကျောင်းတွေ ပိတ်ရတာမျိုးမရှိအောင်၊ ကလေးငယ်တွေ ကျန်းမာရေး မထိခိုက်အောင် အဓိကရည်ရွယ်ပါတယ်။ အစိုးရကျောင်းတိုင်းက အဲယားကွန်းတွေနဲ့ ဖြစ်သွားမှာဖြစ်ပြီး ပုဂ္ဂလိကကျောင်းတွေရော ဒီ အစီအစဥ်မှာ ပါဝင်လာမလားဆိုတာတော့စောင့်ကြည့်ရမှာပါ။ ကလေးတွေအတွက် စိတ်ချလုံခြုံတဲ့ ကျောင်းပတ်ဝန်းကျင်ဖန်တီးပေးနိုင်ဖို့ ကြိုးစားနေတာ ဝမ်းသာစရာပါ။</p><p><br></p><p>Ref:Bangkok Post</p><p> #burmatowns #WhatsHappeningInThailand #WeLoveThailand #ထိုင်းရောက်မြန်မာ</p>",
         "coverPhoto":"https://mingalar.mcodey.com/static/images/7bb389f86d0e8682e7d6.jpeg",
         "newsCategory":{
            "_id":"67478de52eb302396c60a23e",
            "name":"Thailand News"
         },
         "createdAt":"2025-02-06T01:47:41.533Z",
         "updatedAt":"2025-02-06T01:47:41.533Z",
         "__v":0
      },
      {
         "_id":"67a4148ce31a4f46d7ba9c61",
         "title":"မြန်မာဘက်ကို ဘာမှ ညှာတာ တာမလုပ်ဘဲ မီးဖျက်ဖို့ အမိန့်ပေးပြီ",
         "content":"<p><br></p><p>ထိုင်းဝန်ကြီးချုပ်ကတော့ လူလိမ်ကျားဖြန့်ဂိုဏ်းတွေ အခြေစိုက်ရာ ထိုင်း-မြန်မာ နယ်စပ်က မြန်မာဘက်ခြမ်းကို မီးဖျက်ဖို့၊ ညှာတာမှုတွေ ဘာတွေ မလုပ်ဘဲ ထိုင်းနိုင်ငံသားတွေကို ကာကွယ်ဖို့ လူလိမ်လုပ်ငန်းတွေရပ်တန်းဖို့ မီးဖျက်ရမယ်လို့ ဒီနေ့ ပြင်းပြင်းထန်ထန်ပြောလိုက်ပါပြီ။ မနေ့က အစိုးရ အစည်းအဝေး အပြီးပြုလုပ်တဲ့ သတင်းစာရှင်းလင်းပွဲမှာ အပြီးမှာ အခုလိုပဲ ပြင်း ပြင်းထန်ထန် အမိန့်ပေးလိုက်တာပါ။ အခုဖြစ်ပေါ်နေတာတွေက ထိုင်းလူမျိုးတွေအတွက် ဂုဏ်သိက္ခာကျစရာဖြစ်နေကြောင်း၊ နိုင်ငံ့ပုံရိပ်လည်း ကျဆင်းစေကြောင်းနဲ့ ပြင်းပြင်းထန်ထန် မကိုင်တွယ်ရင် ရေရှည်မှာ အကျိုးမရှိတာတွေပဲပိုဖြစ်မှာဖြစ်တဲ့အတွက် လုပ်ဆောင်သင့်တာကို အစိုးရအဖွဲ့ဝင်တွေနဲ့ လုပ်ဆောင်ဖို့ ဆွေးနွေးပြီးပြီဖြစ်ကြောင်း သူကပြောတာပါ။</p><p>.</p><p>လျှပ်စစ်မီးအပြင် ဓာတ်ဆီ၊ လောင်စာဆီတင်သွင်းတာတွေကိုလည်း ရပ်တန့်သွားမှာဖြစ်တဲ့အပြင် အခုလို လုပ်ဖို့ တွန့်ဆုတ်နေတယ်ဆိုတဲ့ သတင်းတွေက အခြေအမြစ်မရှိတဲ့အပြင် ကာကွယ်ရေးဝန်ကြီးနဲ့ သက်ဆိုင်ရာအဖွဲ့တွေကလည်း လုပ်ဆောင်နေပြီလို့ ပြောပြခဲ့ပါတယ်။ မြန်မာ ထိုင်းနယ်စက်မှာ ဒီရက်ပိုင်း အခြေအနေတွေက ရှုပ်ထွေးမှုတွေဖြစ်နေပြီး တရုတ်နိုင်ငံကလည်း ကျားဖြန့်တွေကို နှိမ်နင်းဖို့ ပါဝင်ပတ်သက်လုပ်ဆောင်နေတာမျိုးရှိနေပါတယ်။</p><p><br></p><p>Ref: NT THAILAND</p><p> #burmatowns #WhatsHappeningInThailand #WeLoveThailand #ထိုင်းရောက်မြန်မာ</p>",
         "coverPhoto":"https://mingalar.mcodey.com/static/images/f5ff61010a5ba7d5494c.jpeg",
         "newsCategory":{
            "_id":"67478de52eb302396c60a23e",
            "name":"Thailand News"
         },
         "createdAt":"2025-02-06T01:46:52.128Z",
         "updatedAt":"2025-02-06T01:46:52.128Z",
         "__v":0
      },
      {
         "_id":"67a41469e31a4f46d7ba9c59",
         "title":"❝မဲဆောက်က ဆရာဝန်တစ်ယောက်ရဲ့ ဇာတ်လမ်း❞",
         "content":"<p><br></p><p><br></p><p>မဲဆောက်အထွေထွေရောဂါကု ဆေးရုံမှာ တာဝန်ထမ်းဆောင်နေတဲ့ Dr Nuttagarn Chuenchom ဟာ ရွှေ့ပြောင်းလုပ်သားတွေကို ဆက်ဆေးကုပေးနေရမယ်ဆိုရင် ဆေးရုံမှာ လုပ်နေတာကနေ ထွက်မယ်လို့ သူ့ ဖေ့ဘွတ်ခ်မှာ တင်ပြီး အသိပေးထားတာတွေ့ရသလို သတင်းဌာနတွေကလည်း တင်ဆက်နေကြပါပြီ။</p><p><br></p><p>ဆရာဝန်အမျိုးသမီးဟာ တီဘီနဲ့ HIV ရောဂါခံစားနေရတဲ့ ထိုင်းမြန်မာက နယ်စပ်က စစ်ရှောင်၊ ဒုက္ခသည်စခန်းတွေမှာ သွားရောက်ကုသပေးနေတာဖြစ်ပြီး မဲဆောက်ဆေးရုံမှာလည်း ဆရာဝန်အင်အားနည်းနေတဲ့အတွက် ဒုက္ခသည်စခန်းတွေကို သွားရတဲ့အခါ လစ်ဟင်းမှုတွေဖြစ်ရကြောင်း၊ ထိုင်းလူနာတွေအတွက်လည်း အဆင်မပြေဘဲ ကုသမှုတွေ နှောင့်နှေးတဲ့အကြောင်း ပြောပြခဲ့တာပါ။</p><p><br></p><p>ဆရာဝန်အမျိုးသမီး ကုသပေးခဲ့တဲ့ ဒုက္ခသည်စခန်းထဲက တချို့ကတော့ အမေရိကန်က ထောက်ပံ့နေတာဖြစ်ပြီး ဇန်နဝါရီအကုန်မှာ တချို့တဝက် ပိတ်သွားတာ သတိထားမိကြမှာပါ။ ဒါကြောင့်ပဲ Tak ခရိုင်က အလှည့်ကျ ထိုင်းဆရာဝန်တွေနဲ့ ကျန်းမာရေးစောင့်ရှောက်မှုပေးဖို့ စီစဥ်တာဖြစ်ပေမယ့် အခုလိုဝေဖန်မှုတွေ ထွက်ပေါ်လာတာဖြစ်ပါတယ်။</p><p>.</p><p>ဒုက္ခသည်စခန်းတွေကို ကုသမှုပေးဖို့က ရေတိုနဲ့ အဆင်မပြေဘဲ သေချာကိုင်တွယ်သင့်ကြောင်း မြန်မာဆရာဝန်တွေရဲ့ အင်အားယူပြီးလည်း ကူညီသင့်ကြောင်း သူက ထောက်ပြတာရှိသလို ဒုက္ခသည်စခန်းက အရေအတွက်ကလည်း Tak ခရိုင်တစ်ခုစာလောက်ရှိတဲ့အတွက် လက်ရှိဆရာဝန်အင်အားနဲ့မဖြစ်နိုင်ကြောင်း၊</p><p><br></p><p>အခုလို လုပ်ပေးနေရခြင်းက ထိုင်းနိုင်ငံတွင်း ဆေးကုမယ့်လူတွေအတွက်လည်း နှောင့်နှေးကြန့်ကြာတာတွေဖြစ်မှာဖြစ်တဲ့အတွက် သူ့အနေနဲ့ နောက်တစ်ခါ တာဝန်ပေးခံရမယ်ဆိုရင် နှစ် ၂၀ တာဝန်ထမ်းဆောင်တာကနေ နှုတ်ထွက်မှာဖြစ်တယ်လို့ အတိအလင်းကြေညာထားတာပါ။</p><p><br></p><p>အပြစ်တော့ပြောစရာမရှိဘူးလို့မြင်ပါတယ်...တာဝန်တွေပိလာတဲ့အခါ နှစ်ဖက်မျှတအောင်လုပ်ရင်း ကြုံရတဲ့ အခက်အခဲတွေထဲက တစ်ခုပါပဲ။</p><p><br></p><p>Ref: NT THAILAND</p><p><br></p><p> #burmatowns #WhatsHappeningInThailand #WeLoveThailand #ထိုင်းရောက်မြန်မာ</p>",
         "coverPhoto":"https://mingalar.mcodey.com/static/images/9fae59bf734af2f0fe08.jpeg",
         "newsCategory":{
            "_id":"67478de52eb302396c60a23e",
            "name":"Thailand News"
         },
         "createdAt":"2025-02-06T01:46:17.289Z",
         "updatedAt":"2025-02-06T01:46:17.289Z",
         "__v":0
      },
      {
         "_id":"67a41320e31a4f46d7ba9c51",
         "title":"ဘန်ကောက်-ချင်းမိုင် Express ကားတိမ်းမှောက်မှုဖြစ်ပွား ၂ ယောက် ေ-သဆုံး",
         "content":"<p><br></p><p><br></p><p>ထိုင်းနိုင်ငံရဲ့ လူစီးများဆုံး Express ကားလိုင်းလို့ပြောလို့ရတဲ့ ဘန်ကောက်-ချင်းမိုင်ဆွဲပြေးတဲ့ Express ကားတစ်စီး ချင်းမိုင်ကနေ ဘန်ကောက်သွားတဲ့ လမ်း Tak ခရိုင်မှာ တိမ်းမှောက်မှုဖြစ်ပြီး လူ (၂) ယောက်ကွယ်လွန်၊ နိုင်ငံခြားသား ၃၅ ယောက် ဒဏ်ရာရတဲ့ဖြစ်ရပ်တစ်ခုဖြစ်သွားခဲ့ပါတယ်။ ကွယ်လွန်သူတွေဟာ ကားဆရာနဲ့ ကားနောက်လိုက်တို့ဖြစ်ပြီး ကားနောက်လိုက်က နေရာတွင် ပွဲချင်းပြီးနဲ့ ကားဆရာကတော့ ကားထဲကနေ မိနစ် ၂၀ ကြာခက်ခက်ခဲခဲ ဆွဲထုတ်ပြီးမှ ရတဲ့ ဒဏ်ရာတွေနဲ့ ကွယ်လွန်သွားခဲ့တာပါ။ အရေးပေါ်အသက်ကယ်နည်းနဲ့ ကယ်ပေမယ့် အချိန်က နှောင်းသွားခဲ့ပါတယ်။</p><p>.</p><p>ကားစီးသူတွေရဲ့ ပြောပြချက်အရတော့ ကားဟာ အရှိန်နဲ့မောင်းနှင်နေတာကို သူတို့ သတိထားမိခဲ့ပြီး မတိုက်မိခင်မှာ ရုတ်တရက် လမ်းချော် စလစ်ရိုက်ပြီး သစ်ပင်ကြီးကိုတည့်တညိ့ ဝင်တိုက်မိတာပါတဲ့။ ကားပေါ်မှာပါတဲ့ နိုင်ငံခြားသား ၃၅ ယောက် ဒဏ်ရာရခဲ့တဲ့အပြင် ကားကလည်းတော်တော်ပျက်စီးသွားခဲ့တာပါ။ ဘန်ကောက်-ချင်းမိုင်သွားတဲ့ကားတွေက တစ်နေ့လုံး အချိန်ပြည့်ရှိပြီး ညဆို လူပိုစည်၊ ပိုများပါတယ်။</p><p><br></p><p>Ref: KhaoSod English</p><p><br></p><p> #burmatowns #WhatsHappeningInThailand #WeLoveThailand #ထိုင်းရောက်မြန်မာ</p>",
         "coverPhoto":"https://mingalar.mcodey.com/static/images/97aa32bd299d9e716de9.jpeg",
         "newsCategory":{
            "_id":"67478de52eb302396c60a23e",
            "name":"Thailand News"
         },
         "createdAt":"2025-02-06T01:40:48.453Z",
         "updatedAt":"2025-02-06T01:40:48.453Z",
         "__v":0
      },
      {
         "_id":"67a412fae31a4f46d7ba9c49",
         "title":"ထိုင်းဘက်က တာချီလိတ်ကိုပါ မီးဖြတ်၊ လူတွေ ဆီအတွက် တန်းစီနေရ",
         "content":"<p><br></p><p>ကျားဖြန့်ဂယက်၊ လူလိမ်ဂိုးဏ်ဂယက်နဲ့ မီးဖြတ်ခံရတဲ့ မြန်မာဘက်က နယ်စပ်မြို့တွေမှာ တာချီလိတ်မြို့လည်း ပါလာပြီဖြစ်ပြီး နေရာတော်တော်များများ မီးဖြတ်ခံရတယ်လို့ ထိုင်းဘက် သတင်းရင်းမြစ်တွေက ဖော်ပြလို့လာပါပြီ။ လျှပ်စစ်မီး ပြန်လည်ရရှိဖို့ လူတွေခမျာ ဆီအတွက် တန်းစီနေရပြီး လူတန်းက တစ်ကီလိုမီတာလောက်ရှိတယ်လို့ သတင်းတွေမှာဖော်ပြထားပါတယ်။ ဆီအတွက် တန်းစီရတာ တာချီလိိတ်အထိ ရောက်သွားခဲ့ပါပြီ။</p><p>.</p><p>တာချီလိတ်ဟာ မီးဖြတ်ခံရတဲ့ နေရာ (၅) ခုထဲက တစ်ခုဖြစ်ပြီး မနေ့က မနက် (၉)နာရီကတည်းက မီးပျက်သွားခဲ့တာပါ။ ဆီအတွက် တန်းစီနေရပြီး ဆီလည်း တင်သွင်းခွင့် ပိတ်လိုက်တာပါ။ ဒါကြောင့် တာချီလိတ်မြို့ခံတွေ လျှပ်စစ်မီးအတွက် ဗျာများနေပြီး ဘယ်တော့ပြန်လာမလဲဆိုတာ မသိရသေးဘူးလို့ဆိုပါတယ်။ တာချီလိတ်မြို့မှာတော့ ထိုင်းဘက်က မီးတွေနဲ့ အဓိက လည်ပတ်နေကြတာဖြစ်ပြီး လာအိုဘက်က မီးလည်းရှိပေမယ့် လူလိမ်တွေက ထိုင်းမီးလိုင်းတွေသုံးတဲ့အတွက် နယ်စပ်က မီးဖြတ်တဲ့ ဖြစ်စဥ်မှာ အကုန်ထိကုန်တာပါ။</p><p><br></p><p>Ref: KhaoSod English</p><p><br></p><p>Credit burmatown </p>",
         "coverPhoto":"https://mingalar.mcodey.com/static/images/cb585a953433fe27364b.jpeg",
         "newsCategory":{
            "_id":"67478de52eb302396c60a23e",
            "name":"Thailand News"
         },
         "createdAt":"2025-02-06T01:40:10.086Z",
         "updatedAt":"2025-02-06T01:40:10.086Z",
         "__v":0
      },
      {
         "_id":"67a02afcb11bfd2c1dffee8b",
         "title":"နိုင်ငံခြားသား (၁၇) ယောက်ဖမ်းခံရ၊ မြန်မာ (၈) ယောက်ပါဝင်",
         "content":"<p><br></p><p><br></p><p>ခရီးသွားနေရာတွေလို့ နာမည်ကြီးတဲ့ တောင်ပိုင်းက ကျွန်းတွေမှာ ဒီရက်ပိုင်း အဖမ်းအဆီးတွေ ခပ်စိတ်စိတ်ပါပဲ။ ဒီတစ်ပတ်ထဲမှာတင် တောင်ပိုင်းဒေသတွေမှာ နိုင်ငံခြားသား (၁၇) ယောက်တိတိ ဖမ်းခံရတယ်လို့ သတင်းတွေမှာ ဖော်ပြလာပါတယ်။ စူရတ်ဌာနီ လူဝင်မှု ကြီးကြပ်ရေးနဲ့ ဒေသခံ အာဏာပိုင်တွေက ပူးပေါင်း လုပ်ဆောင်တဲ့ ဒီ စစ်ဆင်ရေးတွေမှာ ကော့စမွေ၊ ကော့ဖဂန်နဲ့ ကော့တောင်တို့မှာ နိုင်ငံခြားသားတွေ တရားမဝင် လုပ်ငန်း လုပ်ကိုင်နေတယ်ဆိုတဲ့ သတင်းတွေရပြီး ဝင်ရောက် ဖမ်းဆီးမှုတွေလုပ်တဲ့အခါ လက်ပူးလက်ကြပ်တွေတန်းစီ မိခဲ့တာပါ။</p><p>.</p><p>ကော့စမွေမှာတော့ ဗြိတိန်နိုင်ငံသားနဲ့ လာအို နိုင်ငံသား နှစ်ယောက်ကို သက်တမ်းကျော်လွန်နေထိုင်မှုရယ်၊ တရားမဝင်ဝင်ရောက်လာတယ်ဆိုတဲ့ စွဲချက်နဲ့ ဖမ်းဆီးခဲ့ပါတယ်။ ကော့ဖဂန်မှာတော့ နိုင်ငံခြားသား (၁၂) ယောက် - ရုရှား (၅)၊ ယူကရိန်း (၂) နဲ့ မြန်မာ (၅) ယောက်တို့ကို နေ့ထိန်းကျောင်းဖွင့်တာရယ်၊ မူကြိုဖွင့်တာရယ်နဲ့ ဖမ်းဆီးခဲ့သလို၊ ကော့တောင်မှာတော့ မြန်မာနိုင်ငံသား (၃) ယောက်ကို အထောက်အထားမဲ့ လုပ်ငန်းလုပ်ကိုင်မှုနဲ့ သူတို့ကို ခန့်အပ်တဲ့ ထိုင်း အလုပ်ရှင်ကိုပါ နေ့ထိန်းကျောင်းဖွင့်တာရယ် အထောက်အထားမဲ့ လုပ်သားတွေကို ဖမ်းလို့ ဖမ်းဆီးခဲ့တယ်လို့ဖော်ပြလာပါတယ်။ အခုလို ဖမ်းဆီးမှုတွေဟာ ရဲချုပ်ဆီကနေ လာတဲ့ တိုက်ရိုက်အမိန့်တွေဖြစ်ပြီး Tourist Visa နဲ့ လာရောက်ပြီး တရားမဝင် အလုပ်လုပ်သူတွေကို တားဆီးဖို့လို့ ပြောပါတယ်။ ဒီရက်ပိုင်း အဖမ်းအဆီးများနေလို့ တော်တော် သတိထားနိုင်မှ တော်ကာကျမှာပါ။</p><p><br></p><p>Ref: Bangkok Post</p><p>&nbsp;#burmatowns #WhatsHappeningInThailand #WeLoveThailand #ထိုင်းရောက်မြန်မာ</p>",
         "coverPhoto":"https://mingalar.mcodey.com/static/images/1f582a056b86f4a0e2c7.jpeg",
         "newsCategory":{
            "_id":"67478de52eb302396c60a23e",
            "name":"Thailand News"
         },
         "createdAt":"2025-02-03T02:33:32.050Z",
         "updatedAt":"2025-02-03T02:33:32.050Z",
         "__v":0
      }
   ]
}
